<?xml version="1.0" encoding="UTF-8" standalone="no"?>
<!-- Created with Inkscape (http://www.inkscape.org/) -->

<svg
   width="43.993103mm"
   height="36.585884mm"
   viewBox="0 0 43.993103 36.585885"
   version="1.1"
   id="svg1"
   xmlns="http://www.w3.org/2000/svg"
   xmlns:svg="http://www.w3.org/2000/svg"
   xmlns:ns1="http://www.iki.fi/pav/software/textext/">
  <defs
     id="defs1">
    <marker
       style="overflow:visible"
       id="DartArrow"
       refX="0"
       refY="0"
       orient="auto-start-reverse"
       markerWidth="1"
       markerHeight="1"
       viewBox="0 0 1 1"
       preserveAspectRatio="xMidYMid">
      <path
         style="fill:context-stroke;fill-rule:evenodd;stroke:none"
         d="M 0,0 5,-5 -12.5,0 5,5 Z"
         transform="scale(-0.5)"
         id="path6" />
    </marker>
  </defs>
  <g
     id="layer1"
     transform="translate(-68.504691,-28.654392)" />
  <g
     transform="matrix(0.352778,0,0,0.352778,-8.81945e-5,6.8239294)"
     ns1:version="1.9.0"
     ns1:texconverter="pdflatex"
     ns1:pdfconverter="inkscape"
     ns1:text="$a$"
     ns1:preamble="/home/frans/Documents/phd/dp/fpl_spade_2022/poster/textext_preamble.tex"
     ns1:scale="1.0"
     ns1:alignment="middle center"
     ns1:stroke-to-path="0"
     id="g4792"
     ns1:jacobian_sqrt="0.352778"
     style="fill:#ffffff">
    <defs
       id="id-81784b9a-d9b3-48dc-8b25-5e0e4221f176">
      <g
         id="id-69904b07-c590-4a38-8d65-78759168e9e5">
        <g
           id="id-9c148384-e46e-47c4-b6ee-a6efd70d88af">
          <path
             d="M 3.71875,-3.765625 C 3.53125,-4.140625 3.25,-4.40625 2.796875,-4.40625 c -1.15625,0 -2.390625,1.46875 -2.390625,2.921875 0,0.9375 0.546875,1.59375 1.3125,1.59375 0.203125,0 0.703125,-0.046875 1.296875,-0.75 0.078125,0.421875 0.4375,0.75 0.90625,0.75 0.359375,0 0.578125,-0.234375 0.75,-0.546875 0.15625,-0.359375 0.296875,-0.96875 0.296875,-0.984375 0,-0.109375 -0.09375,-0.109375 -0.125,-0.109375 -0.09375,0 -0.109375,0.046875 -0.140625,0.1875 -0.171875,0.640625 -0.34375,1.234375 -0.75,1.234375 -0.28125,0 -0.296875,-0.265625 -0.296875,-0.453125 0,-0.21875 0.015625,-0.3125 0.125,-0.75 C 3.890625,-1.71875 3.90625,-1.828125 4,-2.203125 L 4.359375,-3.59375 c 0.0625,-0.28125 0.0625,-0.296875 0.0625,-0.34375 0,-0.171875 -0.109375,-0.265625 -0.28125,-0.265625 -0.25,0 -0.390625,0.21875 -0.421875,0.4375 z M 3.078125,-1.1875 C 3.015625,-1 3.015625,-0.984375 2.875,-0.8125 2.4375,-0.265625 2.03125,-0.109375 1.75,-0.109375 c -0.5,0 -0.640625,-0.546875 -0.640625,-0.9375 0,-0.5 0.3125,-1.71875 0.546875,-2.1875 0.3125,-0.578125 0.75,-0.953125 1.15625,-0.953125 0.640625,0 0.78125,0.8125 0.78125,0.875 0,0.0625 -0.015625,0.125 -0.03125,0.171875 z m 0,0"
             id="id-1c258d54-4cc7-49b6-9721-a78d80c3455e" />
        </g>
      </g>
    </defs>
    <g
       fill="#000000"
       fill-opacity="1"
       id="id-c877d7f4-af18-437f-b972-c1da2f6eac69"
       transform="translate(-149.118,-130.359)"
       style="fill:#ffffff">
      <g
         transform="translate(148.712,134.765)"
         id="g1898"
         style="fill:#ffffff">
        <path
           d="M 3.71875,-3.765625 C 3.53125,-4.140625 3.25,-4.40625 2.796875,-4.40625 c -1.15625,0 -2.390625,1.46875 -2.390625,2.921875 0,0.9375 0.546875,1.59375 1.3125,1.59375 0.203125,0 0.703125,-0.046875 1.296875,-0.75 0.078125,0.421875 0.4375,0.75 0.90625,0.75 0.359375,0 0.578125,-0.234375 0.75,-0.546875 0.15625,-0.359375 0.296875,-0.96875 0.296875,-0.984375 0,-0.109375 -0.09375,-0.109375 -0.125,-0.109375 -0.09375,0 -0.109375,0.046875 -0.140625,0.1875 -0.171875,0.640625 -0.34375,1.234375 -0.75,1.234375 -0.28125,0 -0.296875,-0.265625 -0.296875,-0.453125 0,-0.21875 0.015625,-0.3125 0.125,-0.75 C 3.890625,-1.71875 3.90625,-1.828125 4,-2.203125 L 4.359375,-3.59375 c 0.0625,-0.28125 0.0625,-0.296875 0.0625,-0.34375 0,-0.171875 -0.109375,-0.265625 -0.28125,-0.265625 -0.25,0 -0.390625,0.21875 -0.421875,0.4375 z M 3.078125,-1.1875 C 3.015625,-1 3.015625,-0.984375 2.875,-0.8125 2.4375,-0.265625 2.03125,-0.109375 1.75,-0.109375 c -0.5,0 -0.640625,-0.546875 -0.640625,-0.9375 0,-0.5 0.3125,-1.71875 0.546875,-2.1875 0.3125,-0.578125 0.75,-0.953125 1.15625,-0.953125 0.640625,0 0.78125,0.8125 0.78125,0.875 0,0.0625 -0.015625,0.125 -0.03125,0.171875 z m 0,0"
           id="id-8d7831b3-7dd6-4657-a088-658761669fb4"
           style="fill:#ffffff" />
      </g>
    </g>
  </g>
  <g
     transform="matrix(0.352778,0,0,0.352778,8.88055e-5,15.901586)"
     ns1:version="1.9.0"
     ns1:texconverter="pdflatex"
     ns1:pdfconverter="inkscape"
     ns1:text="$b$"
     ns1:preamble="/home/frans/Documents/phd/dp/fpl_spade_2022/poster/textext_preamble.tex"
     ns1:scale="1.0"
     ns1:alignment="middle center"
     ns1:stroke-to-path="0"
     id="g2738"
     ns1:jacobian_sqrt="0.352778"
     style="fill:#ffffff">
    <defs
       id="id-dd0b46c4-00be-4017-afaf-7f26d745da87">
      <g
         id="id-053251f9-b547-42c1-9657-4062823b2e3b">
        <g
           id="id-5afbbcb7-e728-4c12-bbbf-b9ac64f2fc57">
          <path
             d="m 2.375,-6.8125 c 0,0 0,-0.109375 -0.125,-0.109375 -0.21875,0 -0.953125,0.078125 -1.21875,0.109375 -0.078125,0 -0.1875,0.015625 -0.1875,0.1875 0,0.125 0.09375,0.125 0.25,0.125 0.46875,0 0.484375,0.0625 0.484375,0.171875 0,0.0625 -0.078125,0.40625 -0.125,0.609375 l -0.828125,3.25 c -0.109375,0.5 -0.15625,0.671875 -0.15625,1.015625 0,0.9375 0.53125,1.5625 1.265625,1.5625 1.171875,0 2.40625,-1.484375 2.40625,-2.921875 0,-0.90625 -0.53125,-1.59375 -1.328125,-1.59375 -0.453125,0 -0.875,0.296875 -1.171875,0.59375 z M 1.453125,-3.046875 C 1.5,-3.265625 1.5,-3.28125 1.59375,-3.390625 2.078125,-4.03125 2.53125,-4.1875 2.796875,-4.1875 c 0.359375,0 0.625,0.296875 0.625,0.9375 0,0.59375 -0.328125,1.734375 -0.515625,2.109375 -0.328125,0.671875 -0.78125,1.03125 -1.171875,1.03125 -0.34375,0 -0.671875,-0.265625 -0.671875,-1 0,-0.203125 0,-0.390625 0.15625,-1.015625 z m 0,0"
             id="id-534a5033-3bd2-4aed-b828-5883d1489b6e" />
        </g>
      </g>
    </defs>
    <g
       fill="#000000"
       fill-opacity="1"
       id="id-59114ca6-06b0-4bbd-834a-0481937e3e23"
       transform="translate(-149.181,-127.843)"
       style="fill:#ffffff">
      <g
         transform="translate(148.712,134.765)"
         id="g7610"
         style="fill:#ffffff">
        <path
           d="m 2.375,-6.8125 c 0,0 0,-0.109375 -0.125,-0.109375 -0.21875,0 -0.953125,0.078125 -1.21875,0.109375 -0.078125,0 -0.1875,0.015625 -0.1875,0.1875 0,0.125 0.09375,0.125 0.25,0.125 0.46875,0 0.484375,0.0625 0.484375,0.171875 0,0.0625 -0.078125,0.40625 -0.125,0.609375 l -0.828125,3.25 c -0.109375,0.5 -0.15625,0.671875 -0.15625,1.015625 0,0.9375 0.53125,1.5625 1.265625,1.5625 1.171875,0 2.40625,-1.484375 2.40625,-2.921875 0,-0.90625 -0.53125,-1.59375 -1.328125,-1.59375 -0.453125,0 -0.875,0.296875 -1.171875,0.59375 z M 1.453125,-3.046875 C 1.5,-3.265625 1.5,-3.28125 1.59375,-3.390625 2.078125,-4.03125 2.53125,-4.1875 2.796875,-4.1875 c 0.359375,0 0.625,0.296875 0.625,0.9375 0,0.59375 -0.328125,1.734375 -0.515625,2.109375 -0.328125,0.671875 -0.78125,1.03125 -1.171875,1.03125 -0.34375,0 -0.671875,-0.265625 -0.671875,-1 0,-0.203125 0,-0.390625 0.15625,-1.015625 z m 0,0"
           id="id-ece6fff4-0f7d-4a88-8120-5c53fde3defd"
           style="fill:#ffffff" />
      </g>
    </g>
  </g>
  <g
     transform="matrix(0.352778,0,0,0.352778,-8.81945e-5,25.866964)"
     ns1:version="1.9.0"
     ns1:texconverter="pdflatex"
     ns1:pdfconverter="inkscape"
     ns1:text="$c$"
     ns1:preamble="/home/frans/Documents/phd/dp/fpl_spade_2022/poster/textext_preamble.tex"
     ns1:scale="1.0"
     ns1:alignment="middle center"
     ns1:stroke-to-path="0"
     id="g7"
     ns1:jacobian_sqrt="0.352778"
     style="fill:#ffffff;stroke-width:0">
    <defs
       id="id-deafc566-c32e-4777-b731-8db5d50fe94f"
       style="fill:#ffffff;stroke-width:0">
      <g
         id="id-3f15b95b-c5cb-4618-acab-9759414076e7"
         style="fill:#ffffff;stroke-width:0">
        <g
           id="id-8db52fe6-4da5-4a51-a4e8-46e22849a21d"
           style="fill:#ffffff;stroke-width:0">
          <path
             d="m 3.953125,-3.78125 c -0.171875,0 -0.296875,0 -0.4375,0.125 -0.171875,0.15625 -0.1875,0.328125 -0.1875,0.390625 0,0.25 0.1875,0.359375 0.375,0.359375 0.28125,0 0.546875,-0.25 0.546875,-0.640625 0,-0.484375 -0.46875,-0.859375 -1.171875,-0.859375 -1.34375,0 -2.671875,1.421875 -2.671875,2.828125 0,0.90625 0.578125,1.6875 1.625,1.6875 1.421875,0 2.25,-1.0625 2.25,-1.171875 0,-0.0625 -0.046875,-0.140625 -0.109375,-0.140625 -0.0625,0 -0.078125,0.03125 -0.140625,0.109375 -0.78125,0.984375 -1.875,0.984375 -1.984375,0.984375 -0.625,0 -0.90625,-0.484375 -0.90625,-1.09375 0,-0.40625 0.203125,-1.375 0.546875,-1.984375 0.3125,-0.578125 0.859375,-1 1.40625,-1 0.328125,0 0.71875,0.125 0.859375,0.40625 z m 0,0"
             id="id-bce3f43f-c0c6-469a-ba29-ecb4cdb650d3"
             style="fill:#ffffff;stroke-width:0" />
        </g>
      </g>
    </defs>
    <g
       fill-opacity="1"
       id="id-1d514df2-59a7-4356-abd7-3587e1db4e96"
       transform="translate(-149.118,-130.359)"
       style="fill:#ffffff;stroke-width:0">
      <g
         transform="translate(148.712,134.765)"
         id="g7013"
         style="fill:#ffffff;stroke-width:0">
        <path
           d="m 3.953125,-3.78125 c -0.171875,0 -0.296875,0 -0.4375,0.125 -0.171875,0.15625 -0.1875,0.328125 -0.1875,0.390625 0,0.25 0.1875,0.359375 0.375,0.359375 0.28125,0 0.546875,-0.25 0.546875,-0.640625 0,-0.484375 -0.46875,-0.859375 -1.171875,-0.859375 -1.34375,0 -2.671875,1.421875 -2.671875,2.828125 0,0.90625 0.578125,1.6875 1.625,1.6875 1.421875,0 2.25,-1.0625 2.25,-1.171875 0,-0.0625 -0.046875,-0.140625 -0.109375,-0.140625 -0.0625,0 -0.078125,0.03125 -0.140625,0.109375 -0.78125,0.984375 -1.875,0.984375 -1.984375,0.984375 -0.625,0 -0.90625,-0.484375 -0.90625,-1.09375 0,-0.40625 0.203125,-1.375 0.546875,-1.984375 0.3125,-0.578125 0.859375,-1 1.40625,-1 0.328125,0 0.71875,0.125 0.859375,0.40625 z m 0,0"
           id="id-f98cac88-8788-44e9-8e99-36eeefbfd740"
           style="fill:#ffffff;stroke-width:0" />
      </g>
    </g>
  </g>
  <rect
     style="fill:none;stroke:#ffffff;stroke-width:0.264999;stroke-dasharray:none;paint-order:fill markers stroke"
     id="rect11"
     width="36.320885"
     height="36.320885"
     x="4.5881939"
     y="0.1324995" />
  <g
     id="layer2"
     style="display:inline">
    <g
       id="g3"
       transform="translate(-1.2547952,-1.9036406)">
      <g
         transform="matrix(0.352778,0,0,0.352778,16.301367,13.324539)"
         ns1:version="1.9.0"
         ns1:texconverter="pdflatex"
         ns1:pdfconverter="inkscape"
         ns1:text="$+$"
         ns1:preamble="/home/frans/Documents/phd/dp/fpl_spade_2022/poster/textext_preamble.tex"
         ns1:scale="1.0"
         ns1:alignment="middle center"
         ns1:stroke-to-path="0"
         id="g9668"
         ns1:jacobian_sqrt="0.352778"
         style="fill:#ffffff">
        <defs
           id="id-6e14ff9a-66ac-442f-8120-dde1788a28d0">
          <g
             id="id-7b335e65-6ff7-4ea8-8f63-777232b3a899">
            <g
               id="id-6dbb3f14-511a-47f8-9e7f-524e60fa1fe5">
              <path
                 d="m 4.078125,-2.296875 h 2.78125 C 7,-2.296875 7.1875,-2.296875 7.1875,-2.5 7.1875,-2.6875 7,-2.6875 6.859375,-2.6875 h -2.78125 v -2.796875 c 0,-0.140625 0,-0.328125 -0.203125,-0.328125 -0.203125,0 -0.203125,0.1875 -0.203125,0.328125 V -2.6875 h -2.78125 c -0.140625,0 -0.328125,0 -0.328125,0.1875 0,0.203125 0.1875,0.203125 0.328125,0.203125 h 2.78125 V 0.5 c 0,0.140625 0,0.328125 0.203125,0.328125 0.203125,0 0.203125,-0.1875 0.203125,-0.328125 z m 0,0"
                 id="id-783a5804-ed5c-4fd3-a177-193f6aaf4865" />
            </g>
          </g>
        </defs>
        <g
           fill="#000000"
           fill-opacity="1"
           id="id-ca2a748d-2061-41fe-9100-991b00f1587e"
           transform="translate(-149.275,-128.952)"
           style="fill:#ffffff">
          <g
             transform="translate(148.712,134.765)"
             id="g5601"
             style="fill:#ffffff">
            <path
               d="m 4.078125,-2.296875 h 2.78125 C 7,-2.296875 7.1875,-2.296875 7.1875,-2.5 7.1875,-2.6875 7,-2.6875 6.859375,-2.6875 h -2.78125 v -2.796875 c 0,-0.140625 0,-0.328125 -0.203125,-0.328125 -0.203125,0 -0.203125,0.1875 -0.203125,0.328125 V -2.6875 h -2.78125 c -0.140625,0 -0.328125,0 -0.328125,0.1875 0,0.203125 0.1875,0.203125 0.328125,0.203125 h 2.78125 V 0.5 c 0,0.140625 0,0.328125 0.203125,0.328125 0.203125,0 0.203125,-0.1875 0.203125,-0.328125 z m 0,0"
               id="id-234acde6-01d6-4ef6-9514-a40813a078b0"
               style="fill:#ffffff" />
          </g>
        </g>
      </g>
      <circle
         style="fill:none;stroke:#ffffff;stroke-width:0.264999;paint-order:fill markers stroke"
         id="path1"
         cx="17.469767"
         cy="14.496047"
         r="1.6360784" />
    </g>
    <path
       style="fill:none;stroke:#ffffff;stroke-width:0.264583px;stroke-linecap:butt;stroke-linejoin:miter;stroke-opacity:1;marker-end:url(#DartArrow)"
       d="m 2.8371458,7.7251494 c 0,0 1.028919,0 3.189736,0 2.160817,0 7.5111522,3.0867566 7.5111522,3.0867566"
       id="path2" />
    <path
       style="fill:none;stroke:#ffffff;stroke-width:0.264583px;stroke-linecap:butt;stroke-linejoin:miter;stroke-opacity:1;marker-end:url(#DartArrow)"
       d="m 2.8371458,17.473756 c 0,0 1.028919,0 3.189736,0 2.160817,0 7.5111522,-3.086757 7.5111522,-3.086757"
       id="path3" />
  </g>
  <g
     id="layer3"
     style="display:none">
    <g
       id="g10"
       transform="translate(12.800384,5.4917943)">
      <g
         transform="matrix(0.352778,0,0,0.352778,16.301367,13.324539)"
         ns1:version="1.9.0"
         ns1:texconverter="pdflatex"
         ns1:pdfconverter="inkscape"
         ns1:text="$+$"
         ns1:preamble="/home/frans/Documents/phd/dp/fpl_spade_2022/poster/textext_preamble.tex"
         ns1:scale="1.0"
         ns1:alignment="middle center"
         ns1:stroke-to-path="0"
         id="g9"
         ns1:jacobian_sqrt="0.352778"
         style="fill:#ffffff">
        <defs
           id="defs5">
          <g
             id="g5">
            <g
               id="g4">
              <path
                 d="m 4.078125,-2.296875 h 2.78125 C 7,-2.296875 7.1875,-2.296875 7.1875,-2.5 7.1875,-2.6875 7,-2.6875 6.859375,-2.6875 h -2.78125 v -2.796875 c 0,-0.140625 0,-0.328125 -0.203125,-0.328125 -0.203125,0 -0.203125,0.1875 -0.203125,0.328125 V -2.6875 h -2.78125 c -0.140625,0 -0.328125,0 -0.328125,0.1875 0,0.203125 0.1875,0.203125 0.328125,0.203125 h 2.78125 V 0.5 c 0,0.140625 0,0.328125 0.203125,0.328125 0.203125,0 0.203125,-0.1875 0.203125,-0.328125 z m 0,0"
                 id="path4" />
            </g>
          </g>
        </defs>
        <g
           fill="#000000"
           fill-opacity="1"
           id="g8"
           transform="translate(-149.275,-128.952)"
           style="fill:#ffffff">
          <g
             transform="translate(148.712,134.765)"
             id="g6"
             style="fill:#ffffff">
            <path
               d="m 4.078125,-2.296875 h 2.78125 C 7,-2.296875 7.1875,-2.296875 7.1875,-2.5 7.1875,-2.6875 7,-2.6875 6.859375,-2.6875 h -2.78125 v -2.796875 c 0,-0.140625 0,-0.328125 -0.203125,-0.328125 -0.203125,0 -0.203125,0.1875 -0.203125,0.328125 V -2.6875 h -2.78125 c -0.140625,0 -0.328125,0 -0.328125,0.1875 0,0.203125 0.1875,0.203125 0.328125,0.203125 h 2.78125 V 0.5 c 0,0.140625 0,0.328125 0.203125,0.328125 0.203125,0 0.203125,-0.1875 0.203125,-0.328125 z m 0,0"
               id="path5"
               style="fill:#ffffff" />
          </g>
        </g>
      </g>
      <circle
         style="fill:none;stroke:#ffffff;stroke-width:0.264999;paint-order:fill markers stroke"
         id="circle9"
         cx="17.469767"
         cy="14.496047"
         r="1.6360784" />
    </g>
    <path
       style="fill:none;stroke:#ffffff;stroke-width:0.264583px;stroke-linecap:butt;stroke-linejoin:miter;stroke-opacity:1;marker-end:url(#DartArrow)"
       d="m 17.969569,12.618816 h 3.189735 c 2.160817,0 6.667075,5.064116 6.667075,5.064116"
       id="path10" />
    <path
       style="fill:none;stroke:#ffffff;stroke-width:0.264583px;stroke-linecap:butt;stroke-linejoin:miter;stroke-opacity:1;marker-end:url(#DartArrow)"
       d="m 2.8371458,26.606151 h 3.189735 c 2.160817,0 21.1001232,-5.52297 21.1001232,-5.52297"
       id="path11" />
  </g>
  <g
     id="layer4"
     style="display:none">
    <path
       style="fill:none;stroke:#ffffff;stroke-width:0.264583px;stroke-linecap:butt;stroke-linejoin:miter;stroke-opacity:1;marker-end:url(#DartArrow)"
       d="M 31.906229,19.987841 H 42.339461"
       id="path12" />
  </g>
</svg>
